[gd_scene load_steps=2 format=2]

[ext_resource path="res://camera/RtsCameraController.gd" type="Script" id=1]

[node name="RtsCameraController" type="Spatial"]
script = ExtResource( 1 )

[node name="Elevation" type="Spatial" parent="."]
transform = Transform( 1, 0, 0, 0, 0.707107, 0.707107, 0, -0.707107, 0.707107, 0, 0, 0 )

[node name="Camera" type="Camera" parent="Elevation"]
transform = Transform( 1, 0, 0, 0, 1, 0, 0, 0, 1, 0, 0, 10 )
current = true

[node name="Tween" type="Tween" parent="."]
