[gd_scene load_steps=7 format=2]

[ext_resource path="res://voxel/_baseHerbe.vox" type="ArrayMesh" id=1]
[ext_resource path="res://scripts/Case.gd" type="Script" id=2]
[ext_resource path="res://voxel/_surbrillance.vox" type="ArrayMesh" id=3]
[ext_resource path="res://voxel/pierres.vox" type="ArrayMesh" id=4]
[ext_resource path="res://prefabs/batiments/Carriere.tscn" type="PackedScene" id=5]

[sub_resource type="BoxShape" id=1]
extents = Vector3( 2, 0.001, 2 )

[node name="Case" type="MeshInstance"]
mesh = ExtResource( 1 )
material/0 = null
script = ExtResource( 2 )
typeId = 3
ressource1 = [ 3, 10 ]

[node name="Area" type="Area" parent="."]
transform = Transform( 1, 0, 0, 0, 1, 0, 0, 0, 1, 0, 3, 0 )

[node name="CollisionShape" type="CollisionShape" parent="Area"]
shape = SubResource( 1 )

[node name="Surbrillance" type="MeshInstance" parent="."]
visible = false
mesh = ExtResource( 3 )
material/0 = null

[node name="Sprite" type="MeshInstance" parent="."]
transform = Transform( 1, 0, 0, 0, 1, 0, 0, 0, 1, 0, 2.801, 0 )
mesh = ExtResource( 4 )
material/0 = null

[node name="BatimentsPossibles" type="Spatial" parent="."]

[node name="Carriere" parent="BatimentsPossibles" instance=ExtResource( 5 )]
transform = Transform( 0.1, 0, 0, 0, 0.1, 0, 0, 0, 0.1, -1.7, 4.28, 0.4 )
visible = false
[connection signal="input_event" from="Area" to="." method="_on_Area_input_event"]
