[gd_scene load_steps=2 format=2]

[ext_resource path="res://voxel/carriere.vox" type="ArrayMesh" id=1]

[node name="Carriere" type="MeshInstance"]
transform = Transform( 0.1, 0, 0, 0, 0.1, 0, 0, 0, 0.1, 0, 0, 0 )
mesh = ExtResource( 1 )
material/0 = null
