[gd_scene load_steps=5 format=2]

[ext_resource path="res://imgs/bouttonsConstru/btnActionVide.png" type="Texture" id=1]
[ext_resource path="res://imgs/bouttonsConstru/btnActionHover.png" type="Texture" id=2]
[ext_resource path="res://imgs/bouttonsConstru/btnActionDisabled.png" type="Texture" id=3]
[ext_resource path="res://scripts/BtnConstruction.gd" type="Script" id=4]

[node name="BtnConstruction" type="TextureButton"]
margin_right = 32.0
margin_bottom = 32.0
texture_normal = ExtResource( 1 )
texture_hover = ExtResource( 2 )
texture_disabled = ExtResource( 3 )
expand = true
script = ExtResource( 4 )
__meta__ = {
"_edit_use_anchors_": false
}

[node name="Sprite" type="Sprite" parent="."]
position = Vector2( 16, 16 )
scale = Vector2( 0.25, 0.25 )
[connection signal="mouse_entered" from="." to="." method="_on_BtnConstruction_mouse_entered"]
[connection signal="mouse_exited" from="." to="." method="_on_BtnConstruction_mouse_exited"]
